%YAML 1.1
%TAG !u! tag:unity3d.com,2011:
--- !u!1001 &33319405888442007
PrefabInstance:
  m_ObjectHideFlags: 0
  serializedVersion: 2
  m_Modification:
    m_TransformParent: {fileID: 0}
    m_Modifications:
    - target: {fileID: 6101169739895853336, guid: 4acb4413f77e1d743894f8d726b2daf7, type: 3}
      propertyPath: m_RootOrder
      value: 0
      objectReference: {fileID: 0}
    - target: {fileID: 6101169739895853336, guid: 4acb4413f77e1d743894f8d726b2daf7, type: 3}
      propertyPath: m_LocalPosition.x
      value: 7
      objectReference: {fileID: 0}
    - target: {fileID: 6101169739895853336, guid: 4acb4413f77e1d743894f8d726b2daf7, type: 3}
      propertyPath: m_LocalPosition.y
      value: 0
      objectReference: {fileID: 0}
    - target: {fileID: 6101169739895853336, guid: 4acb4413f77e1d743894f8d726b2daf7, type: 3}
      propertyPath: m_LocalPosition.z
      value: 0
      objectReference: {fileID: 0}
    - target: {fileID: 6101169739895853336, guid: 4acb4413f77e1d743894f8d726b2daf7, type: 3}
      propertyPath: m_LocalRotation.w
      value: 1
      objectReference: {fileID: 0}
    - target: {fileID: 6101169739895853336, guid: 4acb4413f77e1d743894f8d726b2daf7, type: 3}
      propertyPath: m_LocalRotation.x
      value: 0
      objectReference: {fileID: 0}
    - target: {fileID: 6101169739895853336, guid: 4acb4413f77e1d743894f8d726b2daf7, type: 3}
      propertyPath: m_LocalRotation.y
      value: 0
      objectReference: {fileID: 0}
    - target: {fileID: 6101169739895853336, guid: 4acb4413f77e1d743894f8d726b2daf7, type: 3}
      propertyPath: m_LocalRotation.z
      value: 0
      objectReference: {fileID: 0}
    - target: {fileID: 6101169739895853336, guid: 4acb4413f77e1d743894f8d726b2daf7, type: 3}
      propertyPath: m_LocalEulerAnglesHint.x
      value: 0
      objectReference: {fileID: 0}
    - target: {fileID: 6101169739895853336, guid: 4acb4413f77e1d743894f8d726b2daf7, type: 3}
      propertyPath: m_LocalEulerAnglesHint.y
      value: 0
      objectReference: {fileID: 0}
    - target: {fileID: 6101169739895853336, guid: 4acb4413f77e1d743894f8d726b2daf7, type: 3}
      propertyPath: m_LocalEulerAnglesHint.z
      value: 0
      objectReference: {fileID: 0}
    - target: {fileID: 6908633021036530594, guid: 4acb4413f77e1d743894f8d726b2daf7, type: 3}
      propertyPath: m_Name
      value: Man_8_NPC
      objectReference: {fileID: 0}
    m_RemovedComponents: []
  m_SourcePrefab: {fileID: 100100000, guid: 4acb4413f77e1d743894f8d726b2daf7, type: 3}
--- !u!4 &6115301563532664719 stripped
Transform:
  m_CorrespondingSourceObject: {fileID: 6101169739895853336, guid: 4acb4413f77e1d743894f8d726b2daf7, type: 3}
  m_PrefabInstance: {fileID: 33319405888442007}
  m_PrefabAsset: {fileID: 0}
--- !u!1 &6887757498522076469 stripped
GameObject:
  m_CorrespondingSourceObject: {fileID: 6908633021036530594, guid: 4acb4413f77e1d743894f8d726b2daf7, type: 3}
  m_PrefabInstance: {fileID: 33319405888442007}
  m_PrefabAsset: {fileID: 0}
--- !u!114 &3392644515387025474
MonoBehaviour:
  m_ObjectHideFlags: 0
  m_CorrespondingSourceObject: {fileID: 0}
  m_PrefabInstance: {fileID: 0}
  m_PrefabAsset: {fileID: 0}
  m_GameObject: {fileID: 6887757498522076469}
  m_Enabled: 1
  m_EditorHideFlags: 0
  m_Script: {fileID: 11500000, guid: aa584fbee541324448dd18d8409c7a41, type: 3}
  m_Name: 
  m_EditorClassIdentifier: 
  ObservedComponentsFoldoutOpen: 1
  Group: 0
  prefixField: -1
  Synchronization: 3
  OwnershipTransfer: 0
  observableSearch: 2
  ObservedComponents: []
  sceneViewId: 0
  InstantiationId: 0
  isRuntimeInstantiated: 0
--- !u!114 &5745888778943017981
MonoBehaviour:
  m_ObjectHideFlags: 0
  m_CorrespondingSourceObject: {fileID: 0}
  m_PrefabInstance: {fileID: 0}
  m_PrefabAsset: {fileID: 0}
  m_GameObject: {fileID: 6887757498522076469}
  m_Enabled: 1
  m_EditorHideFlags: 0
  m_Script: {fileID: 11500000, guid: 8a35f6cfbfba9b548aaa00d52cfe8a50, type: 3}
  m_Name: 
  m_EditorClassIdentifier: 
  m_InteractionManager: {fileID: 0}
  m_Colliders: []
  m_InteractionLayerMask:
    serializedVersion: 2
    m_Bits: 4294967295
  m_InteractionLayers:
    m_Bits: 1
  m_DistanceCalculationMode: 1
  m_SelectMode: 0
  m_CustomReticle: {fileID: 0}
  m_FirstHoverEntered:
    m_PersistentCalls:
      m_Calls: []
  m_LastHoverExited:
    m_PersistentCalls:
      m_Calls: []
  m_HoverEntered:
    m_PersistentCalls:
      m_Calls: []
  m_HoverExited:
    m_PersistentCalls:
      m_Calls: []
  m_FirstSelectEntered:
    m_PersistentCalls:
      m_Calls: []
  m_LastSelectExited:
    m_PersistentCalls:
      m_Calls: []
  m_SelectEntered:
    m_PersistentCalls:
      m_Calls: []
  m_SelectExited:
    m_PersistentCalls:
      m_Calls: []
  m_Activated:
    m_PersistentCalls:
      m_Calls: []
  m_Deactivated:
    m_PersistentCalls:
      m_Calls: []
  m_OnFirstHoverEntered:
    m_PersistentCalls:
      m_Calls: []
  m_OnLastHoverExited:
    m_PersistentCalls:
      m_Calls: []
  m_OnHoverEntered:
    m_PersistentCalls:
      m_Calls: []
  m_OnHoverExited:
    m_PersistentCalls:
      m_Calls: []
  m_OnSelectEntered:
    m_PersistentCalls:
      m_Calls: []
  m_OnSelectExited:
    m_PersistentCalls:
      m_Calls: []
  m_OnSelectCanceled:
    m_PersistentCalls:
      m_Calls: []
  m_OnActivate:
    m_PersistentCalls:
      m_Calls: []
  m_OnDeactivate:
    m_PersistentCalls:
      m_Calls: []
--- !u!114 &6005360034361218287
MonoBehaviour:
  m_ObjectHideFlags: 0
  m_CorrespondingSourceObject: {fileID: 0}
  m_PrefabInstance: {fileID: 0}
  m_PrefabAsset: {fileID: 0}
  m_GameObject: {fileID: 6887757498522076469}
  m_Enabled: 1
  m_EditorHideFlags: 0
  m_Script: {fileID: 11500000, guid: 876884edf142453ca3d238a284a651af, type: 3}
  m_Name: 
  m_EditorClassIdentifier: 
  m_UserData: {fileID: 11400000, guid: e2d2d6693b9b08443af0d22d4c3d0a3a, type: 2}
  m_AvatarView: {fileID: 3781091034515492473}
--- !u!1001 &7718326307015771469
PrefabInstance:
  m_ObjectHideFlags: 0
  serializedVersion: 2
  m_Modification:
    m_TransformParent: {fileID: 6115301563532664719}
    m_Modifications:
    - target: {fileID: 6873657013567458101, guid: 2a6f4220da0421241aac8b15a7b94679, type: 3}
      propertyPath: m_Pivot.x
      value: 0.5
      objectReference: {fileID: 0}
    - target: {fileID: 6873657013567458101, guid: 2a6f4220da0421241aac8b15a7b94679, type: 3}
      propertyPath: m_Pivot.y
      value: 0.5
      objectReference: {fileID: 0}
    - target: {fileID: 6873657013567458101, guid: 2a6f4220da0421241aac8b15a7b94679, type: 3}
      propertyPath: m_RootOrder
      value: 11
      objectReference: {fileID: 0}
    - target: {fileID: 6873657013567458101, guid: 2a6f4220da0421241aac8b15a7b94679, type: 3}
      propertyPath: m_AnchorMax.x
      value: 0
      objectReference: {fileID: 0}
    - target: {fileID: 6873657013567458101, guid: 2a6f4220da0421241aac8b15a7b94679, type: 3}
      propertyPath: m_AnchorMax.y
      value: 0
      objectReference: {fileID: 0}
    - target: {fileID: 6873657013567458101, guid: 2a6f4220da0421241aac8b15a7b94679, type: 3}
      propertyPath: m_AnchorMin.x
      value: 0
      objectReference: {fileID: 0}
    - target: {fileID: 6873657013567458101, guid: 2a6f4220da0421241aac8b15a7b94679, type: 3}
      propertyPath: m_AnchorMin.y
      value: 0
      objectReference: {fileID: 0}
    - target: {fileID: 6873657013567458101, guid: 2a6f4220da0421241aac8b15a7b94679, type: 3}
      propertyPath: m_SizeDelta.x
      value: 512
      objectReference: {fileID: 0}
    - target: {fileID: 6873657013567458101, guid: 2a6f4220da0421241aac8b15a7b94679, type: 3}
      propertyPath: m_SizeDelta.y
      value: 280
      objectReference: {fileID: 0}
    - target: {fileID: 6873657013567458101, guid: 2a6f4220da0421241aac8b15a7b94679, type: 3}
      propertyPath: m_LocalScale.x
      value: 0.0019999999
      objectReference: {fileID: 0}
    - target: {fileID: 6873657013567458101, guid: 2a6f4220da0421241aac8b15a7b94679, type: 3}
      propertyPath: m_LocalScale.y
      value: 0.0019999999
      objectReference: {fileID: 0}
    - target: {fileID: 6873657013567458101, guid: 2a6f4220da0421241aac8b15a7b94679, type: 3}
      propertyPath: m_LocalScale.z
      value: 0.0019999999
      objectReference: {fileID: 0}
    - target: {fileID: 6873657013567458101, guid: 2a6f4220da0421241aac8b15a7b94679, type: 3}
      propertyPath: m_LocalPosition.x
      value: 0
      objectReference: {fileID: 0}
    - target: {fileID: 6873657013567458101, guid: 2a6f4220da0421241aac8b15a7b94679, type: 3}
      propertyPath: m_LocalPosition.y
      value: 0
      objectReference: {fileID: 0}
    - target: {fileID: 6873657013567458101, guid: 2a6f4220da0421241aac8b15a7b94679, type: 3}
      propertyPath: m_LocalPosition.z
      value: 0
      objectReference: {fileID: 0}
    - target: {fileID: 6873657013567458101, guid: 2a6f4220da0421241aac8b15a7b94679, type: 3}
      propertyPath: m_LocalRotation.w
      value: 1
      objectReference: {fileID: 0}
    - target: {fileID: 6873657013567458101, guid: 2a6f4220da0421241aac8b15a7b94679, type: 3}
      propertyPath: m_LocalRotation.x
      value: -0
      objectReference: {fileID: 0}
    - target: {fileID: 6873657013567458101, guid: 2a6f4220da0421241aac8b15a7b94679, type: 3}
      propertyPath: m_LocalRotation.y
      value: -0
      objectReference: {fileID: 0}
    - target: {fileID: 6873657013567458101, guid: 2a6f4220da0421241aac8b15a7b94679, type: 3}
      propertyPath: m_LocalRotation.z
      value: -0
      objectReference: {fileID: 0}
    - target: {fileID: 6873657013567458101, guid: 2a6f4220da0421241aac8b15a7b94679, type: 3}
      propertyPath: m_AnchoredPosition.x
      value: 0
      objectReference: {fileID: 0}
    - target: {fileID: 6873657013567458101, guid: 2a6f4220da0421241aac8b15a7b94679, type: 3}
      propertyPath: m_AnchoredPosition.y
      value: 2.2
      objectReference: {fileID: 0}
    - target: {fileID: 6873657013567458101, guid: 2a6f4220da0421241aac8b15a7b94679, type: 3}
      propertyPath: m_LocalEulerAnglesHint.x
      value: 0
      objectReference: {fileID: 0}
    - target: {fileID: 6873657013567458101, guid: 2a6f4220da0421241aac8b15a7b94679, type: 3}
      propertyPath: m_LocalEulerAnglesHint.y
      value: 0
      objectReference: {fileID: 0}
    - target: {fileID: 6873657013567458101, guid: 2a6f4220da0421241aac8b15a7b94679, type: 3}
      propertyPath: m_LocalEulerAnglesHint.z
      value: 0
      objectReference: {fileID: 0}
    - target: {fileID: 6873657013567458105, guid: 2a6f4220da0421241aac8b15a7b94679, type: 3}
      propertyPath: m_Name
      value: AvatarUI
      objectReference: {fileID: 0}
    - target: {fileID: 6873657013567458105, guid: 2a6f4220da0421241aac8b15a7b94679, type: 3}
      propertyPath: m_IsActive
      value: 0
      objectReference: {fileID: 0}
    - target: {fileID: 6873657013567458107, guid: 2a6f4220da0421241aac8b15a7b94679, type: 3}
      propertyPath: m_PresetInfoIsWorld
      value: 1
      objectReference: {fileID: 0}
    - target: {fileID: 7162602937497892318, guid: 2a6f4220da0421241aac8b15a7b94679, type: 3}
      propertyPath: m_AnchorMax.y
      value: 1
      objectReference: {fileID: 0}
    - target: {fileID: 7162602937497892318, guid: 2a6f4220da0421241aac8b15a7b94679, type: 3}
      propertyPath: m_AnchorMin.y
      value: 1
      objectReference: {fileID: 0}
    - target: {fileID: 7162602937497892318, guid: 2a6f4220da0421241aac8b15a7b94679, type: 3}
      propertyPath: m_SizeDelta.x
      value: 196
      objectReference: {fileID: 0}
    - target: {fileID: 7162602937497892318, guid: 2a6f4220da0421241aac8b15a7b94679, type: 3}
      propertyPath: m_SizeDelta.y
      value: 127.88
      objectReference: {fileID: 0}
    - target: {fileID: 7162602937497892318, guid: 2a6f4220da0421241aac8b15a7b94679, type: 3}
      propertyPath: m_AnchoredPosition.x
      value: 130
      objectReference: {fileID: 0}
    - target: {fileID: 7162602937497892318, guid: 2a6f4220da0421241aac8b15a7b94679, type: 3}
      propertyPath: m_AnchoredPosition.y
      value: -179.74
      objectReference: {fileID: 0}
    - target: {fileID: 7162602937886130468, guid: 2a6f4220da0421241aac8b15a7b94679, type: 3}
      propertyPath: m_AnchorMax.y
      value: 1
      objectReference: {fileID: 0}
    - target: {fileID: 7162602937886130468, guid: 2a6f4220da0421241aac8b15a7b94679, type: 3}
      propertyPath: m_AnchorMin.y
      value: 1
      objectReference: {fileID: 0}
    - target: {fileID: 7162602937886130468, guid: 2a6f4220da0421241aac8b15a7b94679, type: 3}
      propertyPath: m_SizeDelta.x
      value: 196
      objectReference: {fileID: 0}
    - target: {fileID: 7162602937886130468, guid: 2a6f4220da0421241aac8b15a7b94679, type: 3}
      propertyPath: m_SizeDelta.y
      value: 63.48
      objectReference: {fileID: 0}
    - target: {fileID: 7162602937886130468, guid: 2a6f4220da0421241aac8b15a7b94679, type: 3}
      propertyPath: m_AnchoredPosition.x
      value: 130
      objectReference: {fileID: 0}
    - target: {fileID: 7162602937886130468, guid: 2a6f4220da0421241aac8b15a7b94679, type: 3}
      propertyPath: m_AnchoredPosition.y
      value: -68.060005
      objectReference: {fileID: 0}
    - target: {fileID: 7162602938445653436, guid: 2a6f4220da0421241aac8b15a7b94679, type: 3}
      propertyPath: m_IsActive
      value: 1
      objectReference: {fileID: 0}
    m_RemovedComponents: []
  m_SourcePrefab: {fileID: 100100000, guid: 2a6f4220da0421241aac8b15a7b94679, type: 3}
--- !u!114 &3781091034515492473 stripped
MonoBehaviour:
  m_CorrespondingSourceObject: {fileID: 6873657013567458100, guid: 2a6f4220da0421241aac8b15a7b94679, type: 3}
  m_PrefabInstance: {fileID: 7718326307015771469}
  m_PrefabAsset: {fileID: 0}
  m_GameObject: {fileID: 0}
  m_Enabled: 1
  m_EditorHideFlags: 0
  m_Script: {fileID: 11500000, guid: 1b7a26d20fab47cc86dc46ac2518b874, type: 3}
  m_Name: 
  m_EditorClassIdentifier: 
