%YAML 1.1
%TAG !u! tag:unity3d.com,2011:
--- !u!1 &225597540009316599
GameObject:
  m_ObjectHideFlags: 0
  m_CorrespondingSourceObject: {fileID: 0}
  m_PrefabInstance: {fileID: 0}
  m_PrefabAsset: {fileID: 0}
  serializedVersion: 6
  m_Component:
  - component: {fileID: 3986429181389948312}
  m_Layer: 0
  m_Name: Teleportation
  m_TagString: Untagged
  m_Icon: {fileID: 0}
  m_NavMeshLayer: 0
  m_StaticEditorFlags: 0
  m_IsActive: 1
--- !u!4 &3986429181389948312
Transform:
  m_ObjectHideFlags: 0
  m_CorrespondingSourceObject: {fileID: 0}
  m_PrefabInstance: {fileID: 0}
  m_PrefabAsset: {fileID: 0}
  m_GameObject: {fileID: 225597540009316599}
  m_LocalRotation: {x: 0, y: 0, z: 0, w: 1}
  m_LocalPosition: {x: 0, y: 0, z: 0}
  m_LocalScale: {x: 1, y: 1, z: 1}
  m_ConstrainProportionsScale: 0
  m_Children:
  - {fileID: 7019485744338932995}
  - {fileID: 4289238618928118}
  m_Father: {fileID: 0}
  m_RootOrder: 0
  m_LocalEulerAnglesHint: {x: 0, y: 0, z: 0}
--- !u!1001 &998475112
PrefabInstance:
  m_ObjectHideFlags: 0
  serializedVersion: 2
  m_Modification:
    m_TransformParent: {fileID: 3986429181389948312}
    m_Modifications:
    - target: {fileID: 1385092962691270, guid: bb1e5545f071a4d4082042807f8ccc85, type: 3}
      propertyPath: m_IsActive
      value: 1
      objectReference: {fileID: 0}
    - target: {fileID: 1973120614565466, guid: bb1e5545f071a4d4082042807f8ccc85, type: 3}
      propertyPath: m_Name
      value: Marker 4 Loop
      objectReference: {fileID: 0}
    - target: {fileID: 4289238006724254, guid: bb1e5545f071a4d4082042807f8ccc85, type: 3}
      propertyPath: m_RootOrder
      value: 1
      objectReference: {fileID: 0}
    - target: {fileID: 4289238006724254, guid: bb1e5545f071a4d4082042807f8ccc85, type: 3}
      propertyPath: m_LocalPosition.x
      value: 0
      objectReference: {fileID: 0}
    - target: {fileID: 4289238006724254, guid: bb1e5545f071a4d4082042807f8ccc85, type: 3}
      propertyPath: m_LocalPosition.y
      value: 0
      objectReference: {fileID: 0}
    - target: {fileID: 4289238006724254, guid: bb1e5545f071a4d4082042807f8ccc85, type: 3}
      propertyPath: m_LocalPosition.z
      value: 0
      objectReference: {fileID: 0}
    - target: {fileID: 4289238006724254, guid: bb1e5545f071a4d4082042807f8ccc85, type: 3}
      propertyPath: m_LocalRotation.w
      value: 1
      objectReference: {fileID: 0}
    - target: {fileID: 4289238006724254, guid: bb1e5545f071a4d4082042807f8ccc85, type: 3}
      propertyPath: m_LocalRotation.x
      value: 0
      objectReference: {fileID: 0}
    - target: {fileID: 4289238006724254, guid: bb1e5545f071a4d4082042807f8ccc85, type: 3}
      propertyPath: m_LocalRotation.y
      value: 0
      objectReference: {fileID: 0}
    - target: {fileID: 4289238006724254, guid: bb1e5545f071a4d4082042807f8ccc85, type: 3}
      propertyPath: m_LocalRotation.z
      value: 0
      objectReference: {fileID: 0}
    - target: {fileID: 4289238006724254, guid: bb1e5545f071a4d4082042807f8ccc85, type: 3}
      propertyPath: m_LocalEulerAnglesHint.x
      value: 0
      objectReference: {fileID: 0}
    - target: {fileID: 4289238006724254, guid: bb1e5545f071a4d4082042807f8ccc85, type: 3}
      propertyPath: m_LocalEulerAnglesHint.y
      value: 0
      objectReference: {fileID: 0}
    - target: {fileID: 4289238006724254, guid: bb1e5545f071a4d4082042807f8ccc85, type: 3}
      propertyPath: m_LocalEulerAnglesHint.z
      value: 0
      objectReference: {fileID: 0}
    - target: {fileID: 198245057707301264, guid: bb1e5545f071a4d4082042807f8ccc85, type: 3}
      propertyPath: InitialModule.startColor.maxColor.b
      value: 1
      objectReference: {fileID: 0}
    - target: {fileID: 198245057707301264, guid: bb1e5545f071a4d4082042807f8ccc85, type: 3}
      propertyPath: InitialModule.startColor.maxColor.g
      value: 0.57254905
      objectReference: {fileID: 0}
    - target: {fileID: 198245057707301264, guid: bb1e5545f071a4d4082042807f8ccc85, type: 3}
      propertyPath: InitialModule.startColor.maxColor.r
      value: 0.28627452
      objectReference: {fileID: 0}
    - target: {fileID: 198626954736036974, guid: bb1e5545f071a4d4082042807f8ccc85, type: 3}
      propertyPath: InitialModule.size3D
      value: 0
      objectReference: {fileID: 0}
    - target: {fileID: 198626954736036974, guid: bb1e5545f071a4d4082042807f8ccc85, type: 3}
      propertyPath: InitialModule.startSize.scalar
      value: 1
      objectReference: {fileID: 0}
    - target: {fileID: 198626954736036974, guid: bb1e5545f071a4d4082042807f8ccc85, type: 3}
      propertyPath: InitialModule.startSize.minScalar
      value: 1
      objectReference: {fileID: 0}
    - target: {fileID: 198626954736036974, guid: bb1e5545f071a4d4082042807f8ccc85, type: 3}
      propertyPath: InitialModule.startSizeZ.minScalar
      value: 1
      objectReference: {fileID: 0}
    - target: {fileID: 198626954736036974, guid: bb1e5545f071a4d4082042807f8ccc85, type: 3}
      propertyPath: InitialModule.startColor.maxColor.b
      value: 1
      objectReference: {fileID: 0}
    - target: {fileID: 198626954736036974, guid: bb1e5545f071a4d4082042807f8ccc85, type: 3}
      propertyPath: InitialModule.startColor.maxColor.g
      value: 0.57254905
      objectReference: {fileID: 0}
    - target: {fileID: 198626954736036974, guid: bb1e5545f071a4d4082042807f8ccc85, type: 3}
      propertyPath: InitialModule.startColor.maxColor.r
      value: 0.28627452
      objectReference: {fileID: 0}
    - target: {fileID: 198626954736036974, guid: bb1e5545f071a4d4082042807f8ccc85, type: 3}
      propertyPath: InitialModule.startSize.minMaxState
      value: 0
      objectReference: {fileID: 0}
    - target: {fileID: 198626954736036974, guid: bb1e5545f071a4d4082042807f8ccc85, type: 3}
      propertyPath: InitialModule.startSizeY.minMaxState
      value: 0
      objectReference: {fileID: 0}
    - target: {fileID: 198626954736036974, guid: bb1e5545f071a4d4082042807f8ccc85, type: 3}
      propertyPath: InitialModule.startSizeZ.minMaxState
      value: 0
      objectReference: {fileID: 0}
    - target: {fileID: 198743801266225586, guid: bb1e5545f071a4d4082042807f8ccc85, type: 3}
      propertyPath: InitialModule.startColor.maxColor.b
      value: 1
      objectReference: {fileID: 0}
    - target: {fileID: 198743801266225586, guid: bb1e5545f071a4d4082042807f8ccc85, type: 3}
      propertyPath: InitialModule.startColor.maxColor.g
      value: 0.57254905
      objectReference: {fileID: 0}
    - target: {fileID: 198743801266225586, guid: bb1e5545f071a4d4082042807f8ccc85, type: 3}
      propertyPath: InitialModule.startColor.maxColor.r
      value: 0.28627452
      objectReference: {fileID: 0}
    - target: {fileID: 198894779885298836, guid: bb1e5545f071a4d4082042807f8ccc85, type: 3}
      propertyPath: simulationSpeed
      value: 0.4
      objectReference: {fileID: 0}
    - target: {fileID: 198894779885298836, guid: bb1e5545f071a4d4082042807f8ccc85, type: 3}
      propertyPath: InitialModule.startColor.maxColor.b
      value: 1
      objectReference: {fileID: 0}
    - target: {fileID: 198894779885298836, guid: bb1e5545f071a4d4082042807f8ccc85, type: 3}
      propertyPath: InitialModule.startColor.maxColor.g
      value: 0.57254905
      objectReference: {fileID: 0}
    - target: {fileID: 198894779885298836, guid: bb1e5545f071a4d4082042807f8ccc85, type: 3}
      propertyPath: InitialModule.startColor.maxColor.r
      value: 0.28627452
      objectReference: {fileID: 0}
    - target: {fileID: 199147470213215992, guid: bb1e5545f071a4d4082042807f8ccc85, type: 3}
      propertyPath: m_Enabled
      value: 1
      objectReference: {fileID: 0}
    - target: {fileID: 199147470213215992, guid: bb1e5545f071a4d4082042807f8ccc85, type: 3}
      propertyPath: m_Materials.Array.size
      value: 1
      objectReference: {fileID: 0}
    - target: {fileID: 199251381694512366, guid: bb1e5545f071a4d4082042807f8ccc85, type: 3}
      propertyPath: m_Materials.Array.size
      value: 1
      objectReference: {fileID: 0}
    - target: {fileID: 199775635506047962, guid: bb1e5545f071a4d4082042807f8ccc85, type: 3}
      propertyPath: m_Enabled
      value: 1
      objectReference: {fileID: 0}
    - target: {fileID: 199775635506047962, guid: bb1e5545f071a4d4082042807f8ccc85, type: 3}
      propertyPath: m_Materials.Array.size
      value: 1
      objectReference: {fileID: 0}
    - target: {fileID: 199838891265694874, guid: bb1e5545f071a4d4082042807f8ccc85, type: 3}
      propertyPath: m_Materials.Array.size
      value: 1
      objectReference: {fileID: 0}
    m_RemovedComponents: []
  m_SourcePrefab: {fileID: 100100000, guid: bb1e5545f071a4d4082042807f8ccc85, type: 3}
--- !u!4 &4289238618928118 stripped
Transform:
  m_CorrespondingSourceObject: {fileID: 4289238006724254, guid: bb1e5545f071a4d4082042807f8ccc85, type: 3}
  m_PrefabInstance: {fileID: 998475112}
  m_PrefabAsset: {fileID: 0}
--- !u!1001 &7017893385216985865
PrefabInstance:
  m_ObjectHideFlags: 0
  serializedVersion: 2
  m_Modification:
    m_TransformParent: {fileID: 3986429181389948312}
    m_Modifications:
    - target: {fileID: 1167685827400720, guid: 860a00df38bb45747863505b9e88f7fd, type: 3}
      propertyPath: m_Name
      value: Marker 1 Loop
      objectReference: {fileID: 0}
    - target: {fileID: 1167685827400720, guid: 860a00df38bb45747863505b9e88f7fd, type: 3}
      propertyPath: m_IsActive
      value: 0
      objectReference: {fileID: 0}
    - target: {fileID: 1666525085852220, guid: 860a00df38bb45747863505b9e88f7fd, type: 3}
      propertyPath: m_IsActive
      value: 0
      objectReference: {fileID: 0}
    - target: {fileID: 1955281153520650, guid: 860a00df38bb45747863505b9e88f7fd, type: 3}
      propertyPath: m_IsActive
      value: 1
      objectReference: {fileID: 0}
    - target: {fileID: 4127351907655178, guid: 860a00df38bb45747863505b9e88f7fd, type: 3}
      propertyPath: m_RootOrder
      value: 0
      objectReference: {fileID: 0}
    - target: {fileID: 4127351907655178, guid: 860a00df38bb45747863505b9e88f7fd, type: 3}
      propertyPath: m_LocalPosition.x
      value: 0
      objectReference: {fileID: 0}
    - target: {fileID: 4127351907655178, guid: 860a00df38bb45747863505b9e88f7fd, type: 3}
      propertyPath: m_LocalPosition.y
      value: 0.05
      objectReference: {fileID: 0}
    - target: {fileID: 4127351907655178, guid: 860a00df38bb45747863505b9e88f7fd, type: 3}
      propertyPath: m_LocalPosition.z
      value: 0
      objectReference: {fileID: 0}
    - target: {fileID: 4127351907655178, guid: 860a00df38bb45747863505b9e88f7fd, type: 3}
      propertyPath: m_LocalRotation.w
      value: 0.7071068
      objectReference: {fileID: 0}
    - target: {fileID: 4127351907655178, guid: 860a00df38bb45747863505b9e88f7fd, type: 3}
      propertyPath: m_LocalRotation.x
      value: 0.7071068
      objectReference: {fileID: 0}
    - target: {fileID: 4127351907655178, guid: 860a00df38bb45747863505b9e88f7fd, type: 3}
      propertyPath: m_LocalRotation.y
      value: 0
      objectReference: {fileID: 0}
    - target: {fileID: 4127351907655178, guid: 860a00df38bb45747863505b9e88f7fd, type: 3}
      propertyPath: m_LocalRotation.z
      value: 0
      objectReference: {fileID: 0}
    - target: {fileID: 4127351907655178, guid: 860a00df38bb45747863505b9e88f7fd, type: 3}
      propertyPath: m_LocalEulerAnglesHint.x
      value: 90
      objectReference: {fileID: 0}
    - target: {fileID: 4127351907655178, guid: 860a00df38bb45747863505b9e88f7fd, type: 3}
      propertyPath: m_LocalEulerAnglesHint.y
      value: 0
      objectReference: {fileID: 0}
    - target: {fileID: 4127351907655178, guid: 860a00df38bb45747863505b9e88f7fd, type: 3}
      propertyPath: m_LocalEulerAnglesHint.z
      value: 0
      objectReference: {fileID: 0}
    - target: {fileID: 4287020322494658, guid: 860a00df38bb45747863505b9e88f7fd, type: 3}
      propertyPath: m_LocalScale.x
      value: 3.2981
      objectReference: {fileID: 0}
    - target: {fileID: 4287020322494658, guid: 860a00df38bb45747863505b9e88f7fd, type: 3}
      propertyPath: m_LocalScale.y
      value: 3.2981
      objectReference: {fileID: 0}
    - target: {fileID: 4287020322494658, guid: 860a00df38bb45747863505b9e88f7fd, type: 3}
      propertyPath: m_LocalScale.z
      value: 3.2981
      objectReference: {fileID: 0}
    - target: {fileID: 198186712213606520, guid: 860a00df38bb45747863505b9e88f7fd, type: 3}
      propertyPath: simulationSpeed
      value: 0.5
      objectReference: {fileID: 0}
    m_RemovedComponents: []
  m_SourcePrefab: {fileID: 100100000, guid: 860a00df38bb45747863505b9e88f7fd, type: 3}
--- !u!4 &7019485744338932995 stripped
Transform:
  m_CorrespondingSourceObject: {fileID: 4127351907655178, guid: 860a00df38bb45747863505b9e88f7fd, type: 3}
  m_PrefabInstance: {fileID: 7017893385216985865}
  m_PrefabAsset: {fileID: 0}
