%YAML 1.1
%TAG !u! tag:unity3d.com,2011:
--- !u!1001 &4214245772390425056
PrefabInstance:
  m_ObjectHideFlags: 0
  serializedVersion: 2
  m_Modification:
    m_TransformParent: {fileID: 0}
    m_Modifications:
    - target: {fileID: 7321840424391240258, guid: 44bacdccc7bafcf408eae9892f46fe08, type: 3}
      propertyPath: m_Name
      value: Man_8
      objectReference: {fileID: 0}
    - target: {fileID: 7987054491497083128, guid: 44bacdccc7bafcf408eae9892f46fe08, type: 3}
      propertyPath: m_RootOrder
      value: 0
      objectReference: {fileID: 0}
    - target: {fileID: 7987054491497083128, guid: 44bacdccc7bafcf408eae9892f46fe08, type: 3}
      propertyPath: m_LocalPosition.x
      value: 7
      objectReference: {fileID: 0}
    - target: {fileID: 7987054491497083128, guid: 44bacdccc7bafcf408eae9892f46fe08, type: 3}
      propertyPath: m_LocalPosition.y
      value: 0
      objectReference: {fileID: 0}
    - target: {fileID: 7987054491497083128, guid: 44bacdccc7bafcf408eae9892f46fe08, type: 3}
      propertyPath: m_LocalPosition.z
      value: 0
      objectReference: {fileID: 0}
    - target: {fileID: 7987054491497083128, guid: 44bacdccc7bafcf408eae9892f46fe08, type: 3}
      propertyPath: m_LocalRotation.w
      value: 1
      objectReference: {fileID: 0}
    - target: {fileID: 7987054491497083128, guid: 44bacdccc7bafcf408eae9892f46fe08, type: 3}
      propertyPath: m_LocalRotation.x
      value: 0
      objectReference: {fileID: 0}
    - target: {fileID: 7987054491497083128, guid: 44bacdccc7bafcf408eae9892f46fe08, type: 3}
      propertyPath: m_LocalRotation.y
      value: 0
      objectReference: {fileID: 0}
    - target: {fileID: 7987054491497083128, guid: 44bacdccc7bafcf408eae9892f46fe08, type: 3}
      propertyPath: m_LocalRotation.z
      value: 0
      objectReference: {fileID: 0}
    - target: {fileID: 7987054491497083128, guid: 44bacdccc7bafcf408eae9892f46fe08, type: 3}
      propertyPath: m_LocalEulerAnglesHint.x
      value: 0
      objectReference: {fileID: 0}
    - target: {fileID: 7987054491497083128, guid: 44bacdccc7bafcf408eae9892f46fe08, type: 3}
      propertyPath: m_LocalEulerAnglesHint.y
      value: 0
      objectReference: {fileID: 0}
    - target: {fileID: 7987054491497083128, guid: 44bacdccc7bafcf408eae9892f46fe08, type: 3}
      propertyPath: m_LocalEulerAnglesHint.z
      value: 0
      objectReference: {fileID: 0}
    m_RemovedComponents: []
  m_SourcePrefab: {fileID: 100100000, guid: 44bacdccc7bafcf408eae9892f46fe08, type: 3}
--- !u!1 &6908633021036530594 stripped
GameObject:
  m_CorrespondingSourceObject: {fileID: 7321840424391240258, guid: 44bacdccc7bafcf408eae9892f46fe08, type: 3}
  m_PrefabInstance: {fileID: 4214245772390425056}
  m_PrefabAsset: {fileID: 0}
--- !u!95 &919132147914936793
Animator:
  serializedVersion: 4
  m_ObjectHideFlags: 0
  m_CorrespondingSourceObject: {fileID: 0}
  m_PrefabInstance: {fileID: 0}
  m_PrefabAsset: {fileID: 0}
  m_GameObject: {fileID: 6908633021036530594}
  m_Enabled: 1
  m_Avatar: {fileID: 0}
  m_Controller: {fileID: 9100000, guid: a80a3d49c372ccb4f82c644d4eefb12a, type: 2}
  m_CullingMode: 0
  m_UpdateMode: 0
  m_ApplyRootMotion: 0
  m_LinearVelocityBlending: 0
  m_StabilizeFeet: 0
  m_WarningMessage: 
  m_HasTransformHierarchy: 1
  m_AllowConstantClipSamplingOptimization: 1
  m_KeepAnimatorControllerStateOnDisable: 0
--- !u!136 &919132147914936794
CapsuleCollider:
  m_ObjectHideFlags: 0
  m_CorrespondingSourceObject: {fileID: 0}
  m_PrefabInstance: {fileID: 0}
  m_PrefabAsset: {fileID: 0}
  m_GameObject: {fileID: 6908633021036530594}
  m_Material: {fileID: 0}
  m_IsTrigger: 0
  m_Enabled: 1
  m_Radius: 0.25
  m_Height: 1.8
  m_Direction: 1
  m_Center: {x: 0, y: 0.9, z: 0}
