%YAML 1.1
%TAG !u! tag:unity3d.com,2011:
--- !u!114 &11400000
MonoBehaviour:
  m_ObjectHideFlags: 0
  m_CorrespondingSourceObject: {fileID: 0}
  m_PrefabInstance: {fileID: 0}
  m_PrefabAsset: {fileID: 0}
  m_GameObject: {fileID: 0}
  m_Enabled: 1
  m_EditorHideFlags: 0
  m_Script: {fileID: 11500000, guid: 183720f1d6e8f9b4dae7d71a56abf610, type: 3}
  m_Name: Woman_5
  m_EditorClassIdentifier: 
  Id: 105
  Name: Woman_5
  NamePrefab: Woman_5
  NameVRPrefab: 
  Prefab: {fileID: 8395408828095471489, guid: 4dfe409880162f545a0296284e508363, type: 3}
  VRPrefab: {fileID: 713614836118045716, guid: f34f26af40849e340a596cc45f8267f9, type: 3}
  FaceImage: {fileID: 21300000, guid: b2b6b2d681732454d8aced021bccac51, type: 3}
  BodyImage: {fileID: 21300000, guid: bc44ccfbbd7a77c4faa7235de63f1074, type: 3}
