%YAML 1.1
%TAG !u! tag:unity3d.com,2011:
--- !u!114 &11400000
MonoBehaviour:
  m_ObjectHideFlags: 0
  m_CorrespondingSourceObject: {fileID: 0}
  m_PrefabInstance: {fileID: 0}
  m_PrefabAsset: {fileID: 0}
  m_GameObject: {fileID: 0}
  m_Enabled: 1
  m_EditorHideFlags: 0
  m_Script: {fileID: 11500000, guid: 183720f1d6e8f9b4dae7d71a56abf610, type: 3}
  m_Name: Woman_9
  m_EditorClassIdentifier: 
  Id: 109
  Name: Woman_9
  NamePrefab: Woman_9
  NameVRPrefab: 
  Prefab: {fileID: 8395408828095471489, guid: 4dfe409880162f545a0296284e508363, type: 3}
  VRPrefab: {fileID: 713614836118045716, guid: f34f26af40849e340a596cc45f8267f9, type: 3}
  FaceImage: {fileID: 21300000, guid: 39df9b76a8035e8478ded109f6f47245, type: 3}
  BodyImage: {fileID: 21300000, guid: 71ce9128b435e35418561d96966f034b, type: 3}
