%YAML 1.1
%TAG !u! tag:unity3d.com,2011:
--- !u!1001 &282881470068094598
PrefabInstance:
  m_ObjectHideFlags: 0
  serializedVersion: 2
  m_Modification:
    m_TransformParent: {fileID: 0}
    m_Modifications:
    - target: {fileID: 4705307663478720781, guid: ef2f4376ff596ca4fa6956f2b491f70c, type: 3}
      propertyPath: m_RootOrder
      value: 0
      objectReference: {fileID: 0}
    - target: {fileID: 4705307663478720781, guid: ef2f4376ff596ca4fa6956f2b491f70c, type: 3}
      propertyPath: m_LocalPosition.x
      value: 12
      objectReference: {fileID: 0}
    - target: {fileID: 4705307663478720781, guid: ef2f4376ff596ca4fa6956f2b491f70c, type: 3}
      propertyPath: m_LocalPosition.y
      value: 0
      objectReference: {fileID: 0}
    - target: {fileID: 4705307663478720781, guid: ef2f4376ff596ca4fa6956f2b491f70c, type: 3}
      propertyPath: m_LocalPosition.z
      value: 0
      objectReference: {fileID: 0}
    - target: {fileID: 4705307663478720781, guid: ef2f4376ff596ca4fa6956f2b491f70c, type: 3}
      propertyPath: m_LocalRotation.w
      value: 1
      objectReference: {fileID: 0}
    - target: {fileID: 4705307663478720781, guid: ef2f4376ff596ca4fa6956f2b491f70c, type: 3}
      propertyPath: m_LocalRotation.x
      value: 0
      objectReference: {fileID: 0}
    - target: {fileID: 4705307663478720781, guid: ef2f4376ff596ca4fa6956f2b491f70c, type: 3}
      propertyPath: m_LocalRotation.y
      value: 0
      objectReference: {fileID: 0}
    - target: {fileID: 4705307663478720781, guid: ef2f4376ff596ca4fa6956f2b491f70c, type: 3}
      propertyPath: m_LocalRotation.z
      value: 0
      objectReference: {fileID: 0}
    - target: {fileID: 4705307663478720781, guid: ef2f4376ff596ca4fa6956f2b491f70c, type: 3}
      propertyPath: m_LocalEulerAnglesHint.x
      value: 0
      objectReference: {fileID: 0}
    - target: {fileID: 4705307663478720781, guid: ef2f4376ff596ca4fa6956f2b491f70c, type: 3}
      propertyPath: m_LocalEulerAnglesHint.y
      value: 0
      objectReference: {fileID: 0}
    - target: {fileID: 4705307663478720781, guid: ef2f4376ff596ca4fa6956f2b491f70c, type: 3}
      propertyPath: m_LocalEulerAnglesHint.z
      value: 0
      objectReference: {fileID: 0}
    - target: {fileID: 5334316737634685879, guid: ef2f4376ff596ca4fa6956f2b491f70c, type: 3}
      propertyPath: m_Name
      value: Woman_4
      objectReference: {fileID: 0}
    m_RemovedComponents: []
  m_SourcePrefab: {fileID: 100100000, guid: ef2f4376ff596ca4fa6956f2b491f70c, type: 3}
--- !u!1 &5326548886638044465 stripped
GameObject:
  m_CorrespondingSourceObject: {fileID: 5334316737634685879, guid: ef2f4376ff596ca4fa6956f2b491f70c, type: 3}
  m_PrefabInstance: {fileID: 282881470068094598}
  m_PrefabAsset: {fileID: 0}
--- !u!95 &919132148703555180
Animator:
  serializedVersion: 4
  m_ObjectHideFlags: 0
  m_CorrespondingSourceObject: {fileID: 0}
  m_PrefabInstance: {fileID: 0}
  m_PrefabAsset: {fileID: 0}
  m_GameObject: {fileID: 5326548886638044465}
  m_Enabled: 1
  m_Avatar: {fileID: 0}
  m_Controller: {fileID: 9100000, guid: 1980ba42bd569da478fc20dd4f709cbc, type: 2}
  m_CullingMode: 0
  m_UpdateMode: 0
  m_ApplyRootMotion: 0
  m_LinearVelocityBlending: 0
  m_StabilizeFeet: 0
  m_WarningMessage: 
  m_HasTransformHierarchy: 1
  m_AllowConstantClipSamplingOptimization: 1
  m_KeepAnimatorControllerStateOnDisable: 0
--- !u!136 &919132148703555181
CapsuleCollider:
  m_ObjectHideFlags: 0
  m_CorrespondingSourceObject: {fileID: 0}
  m_PrefabInstance: {fileID: 0}
  m_PrefabAsset: {fileID: 0}
  m_GameObject: {fileID: 5326548886638044465}
  m_Material: {fileID: 0}
  m_IsTrigger: 0
  m_Enabled: 1
  m_Radius: 0.25
  m_Height: 1.8
  m_Direction: 1
  m_Center: {x: 0, y: 0.9, z: 0}
