%YAML 1.1
%TAG !u! tag:unity3d.com,2011:
--- !u!114 &11400000
MonoBehaviour:
  m_ObjectHideFlags: 0
  m_CorrespondingSourceObject: {fileID: 0}
  m_PrefabInstance: {fileID: 0}
  m_PrefabAsset: {fileID: 0}
  m_GameObject: {fileID: 0}
  m_Enabled: 1
  m_EditorHideFlags: 0
  m_Script: {fileID: 11500000, guid: 7eada82785e64883ba40f80f6323002a, type: 3}
  m_Name: Woman_4
  m_EditorClassIdentifier: 
  Id: 104
  Name: Annie Sanders
  AvatarResPath: 
  AvatarData: {fileID: 11400000, guid: 6e10fbcb21c404a4e91b09f48f1786cd, type: 2}
  Tags: []
