%YAML 1.1
%TAG !u! tag:unity3d.com,2011:
--- !u!1001 &7873784294682062673
PrefabInstance:
  m_ObjectHideFlags: 0
  serializedVersion: 2
  m_Modification:
    m_TransformParent: {fileID: 0}
    m_Modifications:
    - target: {fileID: 1334400498044917655, guid: c7acfa61830ec3e48ba63563fdc9fb3d, type: 3}
      propertyPath: m_RootOrder
      value: 0
      objectReference: {fileID: 0}
    - target: {fileID: 1334400498044917655, guid: c7acfa61830ec3e48ba63563fdc9fb3d, type: 3}
      propertyPath: m_LocalPosition.x
      value: 15
      objectReference: {fileID: 0}
    - target: {fileID: 1334400498044917655, guid: c7acfa61830ec3e48ba63563fdc9fb3d, type: 3}
      propertyPath: m_LocalPosition.y
      value: 0
      objectReference: {fileID: 0}
    - target: {fileID: 1334400498044917655, guid: c7acfa61830ec3e48ba63563fdc9fb3d, type: 3}
      propertyPath: m_LocalPosition.z
      value: 0
      objectReference: {fileID: 0}
    - target: {fileID: 1334400498044917655, guid: c7acfa61830ec3e48ba63563fdc9fb3d, type: 3}
      propertyPath: m_LocalRotation.w
      value: 1
      objectReference: {fileID: 0}
    - target: {fileID: 1334400498044917655, guid: c7acfa61830ec3e48ba63563fdc9fb3d, type: 3}
      propertyPath: m_LocalRotation.x
      value: 0
      objectReference: {fileID: 0}
    - target: {fileID: 1334400498044917655, guid: c7acfa61830ec3e48ba63563fdc9fb3d, type: 3}
      propertyPath: m_LocalRotation.y
      value: 0
      objectReference: {fileID: 0}
    - target: {fileID: 1334400498044917655, guid: c7acfa61830ec3e48ba63563fdc9fb3d, type: 3}
      propertyPath: m_LocalRotation.z
      value: 0
      objectReference: {fileID: 0}
    - target: {fileID: 1334400498044917655, guid: c7acfa61830ec3e48ba63563fdc9fb3d, type: 3}
      propertyPath: m_LocalEulerAnglesHint.x
      value: 0
      objectReference: {fileID: 0}
    - target: {fileID: 1334400498044917655, guid: c7acfa61830ec3e48ba63563fdc9fb3d, type: 3}
      propertyPath: m_LocalEulerAnglesHint.y
      value: 0
      objectReference: {fileID: 0}
    - target: {fileID: 1334400498044917655, guid: c7acfa61830ec3e48ba63563fdc9fb3d, type: 3}
      propertyPath: m_LocalEulerAnglesHint.z
      value: 0
      objectReference: {fileID: 0}
    - target: {fileID: 1859826676836470061, guid: c7acfa61830ec3e48ba63563fdc9fb3d, type: 3}
      propertyPath: m_Name
      value: Woman_7
      objectReference: {fileID: 0}
    m_RemovedComponents: []
  m_SourcePrefab: {fileID: 100100000, guid: c7acfa61830ec3e48ba63563fdc9fb3d, type: 3}
--- !u!1 &8397563604117807740 stripped
GameObject:
  m_CorrespondingSourceObject: {fileID: 1859826676836470061, guid: c7acfa61830ec3e48ba63563fdc9fb3d, type: 3}
  m_PrefabInstance: {fileID: 7873784294682062673}
  m_PrefabAsset: {fileID: 0}
--- !u!95 &919132148054632302
Animator:
  serializedVersion: 4
  m_ObjectHideFlags: 0
  m_CorrespondingSourceObject: {fileID: 0}
  m_PrefabInstance: {fileID: 0}
  m_PrefabAsset: {fileID: 0}
  m_GameObject: {fileID: 8397563604117807740}
  m_Enabled: 1
  m_Avatar: {fileID: 0}
  m_Controller: {fileID: 9100000, guid: 1980ba42bd569da478fc20dd4f709cbc, type: 2}
  m_CullingMode: 0
  m_UpdateMode: 0
  m_ApplyRootMotion: 0
  m_LinearVelocityBlending: 0
  m_StabilizeFeet: 0
  m_WarningMessage: 
  m_HasTransformHierarchy: 1
  m_AllowConstantClipSamplingOptimization: 1
  m_KeepAnimatorControllerStateOnDisable: 0
--- !u!136 &919132148054632303
CapsuleCollider:
  m_ObjectHideFlags: 0
  m_CorrespondingSourceObject: {fileID: 0}
  m_PrefabInstance: {fileID: 0}
  m_PrefabAsset: {fileID: 0}
  m_GameObject: {fileID: 8397563604117807740}
  m_Material: {fileID: 0}
  m_IsTrigger: 0
  m_Enabled: 1
  m_Radius: 0.25
  m_Height: 1.8
  m_Direction: 1
  m_Center: {x: 0, y: 0.9, z: 0}
