%YAML 1.1
%TAG !u! tag:unity3d.com,2011:
--- !u!30 &1
GraphicsSettings:
  m_ObjectHideFlags: 0
  serializedVersion: 14
  m_Deferred:
    m_Mode: 1
    m_Shader: {fileID: 69, guid: 0000000000000000f000000000000000, type: 0}
  m_DeferredReflections:
    m_Mode: 1
    m_Shader: {fileID: 74, guid: 0000000000000000f000000000000000, type: 0}
  m_ScreenSpaceShadows:
    m_Mode: 1
    m_Shader: {fileID: 64, guid: 0000000000000000f000000000000000, type: 0}
  m_LegacyDeferred:
    m_Mode: 1
    m_Shader: {fileID: 63, guid: 0000000000000000f000000000000000, type: 0}
  m_DepthNormals:
    m_Mode: 1
    m_Shader: {fileID: 62, guid: 0000000000000000f000000000000000, type: 0}
  m_MotionVectors:
    m_Mode: 1
    m_Shader: {fileID: 75, guid: 0000000000000000f000000000000000, type: 0}
  m_LightHalo:
    m_Mode: 1
    m_Shader: {fileID: 105, guid: 0000000000000000f000000000000000, type: 0}
  m_LensFlare:
    m_Mode: 1
    m_Shader: {fileID: 102, guid: 0000000000000000f000000000000000, type: 0}
  m_VideoShadersIncludeMode: 2
  m_AlwaysIncludedShaders:
  - {fileID: 10753, guid: 0000000000000000f000000000000000, type: 0}
  - {fileID: 10770, guid: 0000000000000000f000000000000000, type: 0}
  - {fileID: 4800000, guid: 4fe4ddd5c6a3dd24d8a818bd811cbfc7, type: 3}
  - {fileID: 4800000, guid: 35d39d65b50f0754bbe6153e154ea627, type: 3}
  - {fileID: 4800000, guid: 768dbf386ea767546887af7efc7d48bf, type: 3}
  - {fileID: 4800000, guid: e01070acf5be83547a01979058a32084, type: 3}
  - {fileID: -6465566751694194690, guid: 2ef995114727f674289c402080c309d6, type: 3}
  - {fileID: -6465566751694194690, guid: 2a893ba20727f774dbed6af1a3c283a8, type: 3}
  - {fileID: -6465566751694194690, guid: 104faf60e00c02547b10390f4e788b06, type: 3}
  - {fileID: -6465566751694194690, guid: c2dd1bfeebdb1174fb829f8e694288dd, type: 3}
  m_PreloadedShaders: []
  m_PreloadShadersBatchTimeLimit: -1
  m_SpritesDefaultMaterial: {fileID: 10754, guid: 0000000000000000f000000000000000, type: 0}
  m_CustomRenderPipeline: {fileID: 11400000, guid: 18d64236151f749d8a4bfb7872578801, type: 2}
  m_TransparencySortMode: 0
  m_TransparencySortAxis: {x: 0, y: 0, z: 1}
  m_DefaultRenderingPath: 1
  m_DefaultMobileRenderingPath: 1
  m_TierSettings: []
  m_LightmapStripping: 0
  m_FogStripping: 0
  m_InstancingStripping: 0
  m_LightmapKeepPlain: 1
  m_LightmapKeepDirCombined: 1
  m_LightmapKeepDynamicPlain: 1
  m_LightmapKeepDynamicDirCombined: 1
  m_LightmapKeepShadowMask: 1
  m_LightmapKeepSubtractive: 1
  m_FogKeepLinear: 1
  m_FogKeepExp: 1
  m_FogKeepExp2: 1
  m_AlbedoSwatchInfos: []
  m_LightsUseLinearIntensity: 1
  m_LightsUseColorTemperature: 1
  m_DefaultRenderingLayerMask: 1
  m_LogWhenShaderIsCompiled: 0
  m_SRPDefaultSettings:
    UnityEngine.Rendering.Universal.UniversalRenderPipeline: {fileID: 11400000, guid: 18652aefdcd3708409b073294ea07a96, type: 2}
